{
	"Kartlag" : [
        {
            "Name": "Landskap",
            "Type": "Tile",
            "Url": "http://services.geodataonline.no/arcgis/rest/services/Geocache_UTM33_WGS84/GeocacheBasis/MapServer",
            "Group": "Bakgrunnskart"
        },
        {
            "Name": "Bilder",
            "Type": "Tile",
            "Url": "http://services.geodataonline.no/arcgis/rest/services/Geocache_UTM33_WGS84/GeocacheBilder/MapServer",
            "DefaultVisible": false,
            "Group": "Bakgrunnskart"
        },
        {
			"Name" : "Plandata",
			"Type": "WMS",
			"Url" : "http://prod.sblogg.no/mapserv/?map=wms.map",
			"Layers": "Plandata",
			"DefaultVisible": true,
			"DefaultOpacity": 0.5,
            "Format": "kompakt8",
            "Group": "Skogdata"
		},
        {
		    "Name" : "Skogbruksplan",
			"Type": "WMS",
			"Url" : "https://wms.nibio.no/cgi-bin/skogbruksplan",
			"Layers": "Registrerte_eldre,Registrerte_2014,Registrerte_2015,Aldersklasser_i_skog",
			"DefaultVisible": false,
			"Opacity": 0.5,
            "Group": "Skogdata"
		},
        {
		    "Name" : "Volum",
			"Type": "WMS",
			"Url" : "https://wms.nibio.no/cgi-bin/sr16",
			"Layers": "SRVVOLUM",
			"DefaultVisible": false,
			"Opacity": 0.5,
            "Group": "SR16"
		},
        {
		    "Name" : "Biomasse underjordisk",
			"Type": "WMS",
			"Url" : "https://wms.nibio.no/cgi-bin/sr16",
			"Layers": "SRVBMU",
			"DefaultVisible": false,
			"Opacity": 0.5,
            "Group": "SR16"
		},
        {
		    "Name" : "Biomasse overjordisk",
			"Type": "WMS",
			"Url" : "https://wms.nibio.no/cgi-bin/sr16",
			"Layers": "SRVBMO",
			"DefaultVisible": false,
			"Opacity": 0.5,
            "Group": "SR16"
		},
        {
		    "Name" : "Høyde",
			"Type": "WMS",
			"Url" : "https://wms.nibio.no/cgi-bin/sr16",
			"Layers": "SRVHOYDE",
			"DefaultVisible": false,
			"Opacity": 0.5,
            "Group": "SR16"
		},
        {
		    "Name" : "Bonitet gran",
			"Type": "WMS",
			"Url" : "https://wms.nibio.no/cgi-bin/sr16",
			"Layers": "SRVBONITETG",
			"DefaultVisible": false,
			"Opacity": 0.5,
            "Group": "SR16"
		},
        {
		    "Name" : "Bonitet furu",
			"Type": "WMS",
			"Url" : "https://wms.nibio.no/cgi-bin/sr16",
			"Layers": "SRVBONITETF",
			"DefaultVisible": false,
			"Opacity": 0.5,
            "Group": "SR16"
		},
        {
		    "Name" : "Bonitet lauv",
			"Type": "WMS",
			"Url" : "https://wms.nibio.no/cgi-bin/sr16",
			"Layers": "SRVBONITETL",
			"DefaultVisible": false,
			"Opacity": 0.5,
            "Group": "SR16"
		},
        {
		    "Name" : "Treslag",
			"Type": "WMS",
			"Url" : "https://wms.nibio.no/cgi-bin/sr16",
			"Layers": "SRVTRESLAG",
			"DefaultVisible": false,
			"Opacity": 0.5,
            "Group": "SR16"
		},
        {
            "Name": "Naturtyper",
            "Type": "Dynamic",
            "Url": "http://wms.dirnat.no/arcgis/rest/services/naturtyper_naturbase/MapServer",
            "Layers": "show:0,1,2,3,4,5,6,7,8,9,10,11,12,13,14,15",
            "DefaultVisible": true,
            "Group": "Vern"
        },
        {
            "Name": "DirnatVern",
            "Type": "Dynamic",
            "Url": "https://kart.miljodirektoratet.no/arcgis/rest/services/vern/MapServer",
            "Layers": "show:0,1,2,3",
            "DefaultVisible": true,
            "Group": "Vern"
        },
        {
            "Name": "Miljodata",
            "Type": "WMS",
            "Url": "http://prod.sblogg.no/mapserv/?map=wms.map",
            "Layers": "Arter_Untatt_off_Point,Arter_Untatt_off_Linje,Arter_Untatt_off_Polygon,Sensitive_Arter_Point,Sensitive_Arter_Buffer,mis",
            "DefaultVisible": true,
            "Group": "Miljø"
        },
        {
            "Name": "Markfuktighetskart",
            "Type": "WMS",
            "Url": "https://wms.nibio.no/cgi-bin/markfuktighetskart",
            "Layers": "markfuktighetsklasser",
            "DefaultVisible": true,
            "Group": "Miljø"
        },
        {
            "Name": "PrioriterteArter",
            "Type": "Dynamic",
            "Url": "http://wms.dirnat.no/arcgis/rest/services/art_prioriterte/MapServer",
            "DefaultVisible": true,
            "Group": "Artsdata"
        },
        {
            "Name": "UtvalgteNaturtyper",
            "Type": "Dynamic",
            "Url": "http://wms.dirnat.no/arcgis/rest/services/naturtyper_utvalgte/MapServer",
            "Layers": "show:3,7,11,15,19,23",
            "DefaultVisible": true,
            "Group": "Vern"
        },
           {
            "Name": "Arter",
            "Type": "Dynamic",
            "Url": "http://wms.dirnat.no/arcgis/rest/services/art_naturbase/MapServer",
            "Layers": "show:1",
            "DefaultVisible": true,
            "Group": "Artsdata"
        },
        {
            "Name": "Rødlistearter",
            "Type": "WMS",
            "Url": "http://kart.artsdatabanken.no/WMS/artskartnr.aspx",
            "Layers": "CR,DD,EN,RE,VU",
            "IdentifyLayers": "CR_punkt,DD_punkt,EN_punkt,RE_punkt,VU_punkt",
            "DefaultVisible": true,
            "Group": "Artsdata"
        },
        {
            "Name": "Vernskog",
            "Type": "WMS",
            "Url": "https://wms.nibio.no/cgi-bin/vernskog",
            "Layers": "VernskogOmriss",
            "DefaultVisible": true,
            "Group": "Vern"
        },
        {
            "Name": "MiS",
            "Type": "WMS",
            "Url": "https://wms.nibio.no/cgi-bin/skogbruksplan",
            "Layers": "Rik_bakkeveg,Liggende_dod_ved,Staende_dod_ved,Hule_lauvtrar,Bekkeklofter,Leirraviner,Bergvegger_linje,Bergvegger_flate,Brannflater,Gamle_trar,Eldre_lauvsuksesjon,Trar_m_hengelav,Rikbarkstrar,Nokkelbiotop_m_mis,Nokkelbiotop_u_mis",
            "Transparent": true,
            "DefaultVisible": true,
            "Group": "Miljø"
        },
        {
            "Name": "Friluftsliv",
            "Type": "Dynamic",
            "Url": "https://kart.miljodirektoratet.no/arcgis/rest/services/friluftsliv_statlig_sikra/MapServer",
            "Layers": "show:0",
            "DefaultVisible": true,
            "Group": "FriluftslivKulturminner"
        },
		{
            "Name": "Eiendom",
            "Type": "WMS",
            "Url": "http://prod.sblogg.no/mapserv/?map=wms.map",
            "Layers": "eiendom",
            "DefaultVisible": true,
            "MinLevel": 9,            
            "Format": "eiendom_format",
            "Group": "EiendomVeg"
        },
		{
		    "Name" : "Veger",
		    "Type": "WMS",
		    "Url" : "http://prod.sblogg.no/mapserv/?map=wms.map",
		    "Layers": "Veger",
		    "DefaultVisible": true,
		    "DefaultOpacity": 1,
            "Format": "veg_format",
            "Group": "EiendomVeg"
		},
		{
            "Name": "Tømmerdrift",
            "Type": "WMS",
            "Url": "http://prod.sblogg.no/mapserv/?map=wms.map",
            "Layers": "Tømmerdrift",
            "MinLevel": 9,
            "DefaultVisible": true,
            "Group": "Produksjon"
        },
    	{
            "Name": "Tømmerkjøp",
            "Type": "WMS",
            "Url": "http://prod.sblogg.no/mapserv/?map=wms.map",
            "Layers": "Tømmerkjøp",
            "MinLevel": 9,
            "DefaultVisible": true,
            "Group": "Produksjon"
        },
        {
            "Name": "Planting",
            "Type": "WMS",
            "Url": "http://prod.sblogg.no/mapserv/?map=wms.map",
            "Layers": "Planting",
            "MinLevel": 9,
            "DefaultVisible": true,
            "Group": "Produksjon"
        },
        {
            "Name": "Ungskogpleie",
            "Type": "WMS",
            "Url": "http://prod.sblogg.no/mapserv/?map=wms.map",
            "Layers": "Ungskogpleie",
            "MinLevel": 9,
            "DefaultVisible": true,
            "Group": "Produksjon"
        },
        		{
            "Name": "Forhåndsrydding",
            "Type": "WMS",
            "Url": "http://prod.sblogg.no/mapserv/?map=wms.map",
            "Layers": "Forhåndsrydding",
            "MinLevel": 9,
            "DefaultVisible": true,
            "Group": "Produksjon"
        },
		{
            "Name": "SporloggHM",
            "Type": "WMS",
            "Url": "http://prod.sblogg.no/mapserv/?map=wms.map",
            "Layers": "Sporlogg",
            "MinLevel": 9,
            "DefaultVisible": true,
            "Group": "Produksjon"
        },
		{
            "Name": "SporloggLB",
            "Type": "WMS",
            "Url": "http://prod.sblogg.no/mapserv/?map=wms.map",
            "Layers": "SporloggLB",
            "MinLevel": 9,
            "DefaultVisible": true,
            "Group": "Produksjon"
        },
        {
            "Name": "Flater",
            "Type": "WMS",
            "Url": "http://prod.sblogg.no/mapserv/?map=wms.map",
            "Layers": "RegistreringerFlater",
            "MinLevel": 9,
            "DefaultVisible": true,
            "Group": "Produksjon"
        },
        {
            "Name": "Linjer",
            "Type": "WMS",
            "Url": "http://prod.sblogg.no/mapserv/?map=wms.map",
            "Layers": "RegistreringerLinjer",
            "MinLevel": 9,
            "DefaultVisible": true,
            "Group": "Produksjon"
        },		
        {
            "Name": "Punkt",
            "Type": "WMS",
            "Url": "http://prod.sblogg.no/mapserv/?map=wms.map",
            "Layers": "RegistreringerPunkt",
            "MinLevel": 9,
            "DefaultVisible": true,
            "Group": "Produksjon"
        },
        {
            "Name": "Kontroll",
            "Type": "WMS",
            "Url": "http://prod.sblogg.no/mapserv/?map=wms.map",
            "Layers": "Kontroll",
            "MinLevel": 9,
            "DefaultVisible": true,
            "Group": "Produksjon"
        },
        {
            "Name": "Stikkprøver",
            "Type": "WMS",
            "Url": "http://prod.sblogg.no/mapserv/?map=wms.map",
            "Layers": "Stikkprøver",
            "MinLevel": 9,
            "DefaultVisible": true,
            "Group": "Produksjon"
        },
		{
			"Name": "Riksantikvaren",
			"Type": "Dynamic",
			"Url": "http://kart.ra.no/arcgis/rest/services/Distribusjon/Kulturminner/MapServer",
			"Layers": "show:1,6",
			"DefaultVisible": true,
			"DefaultOpacity": 1,
            "Group": "FriluftslivKulturminner"
		}


	]	
}
