{
	"pgservers": {
		"produksjon": {
			"url": "http://prod.sblogg.no",
			"org": "sbskog",
			"tables": {
				"hoydemaalinger": {

				},
				"gflmaalinger": {
					
				}			
			}
		}
	},
	"agsservers": {
		"produksjon": {
			"url": "http://kartdata2.sbskog.no/arcgis/rest/services/sbskog/sblogg3_4/FeatureServer",
			"layers": {
				"Kontroll": {
					"layerid": 0,
					"isreadonly": true
				},
				"Sporlogg": {
					"layerid": 1,
					"isreadonly": true
				},
				"RegistreringerPunkt": {
					"layerid": 2,
					"isreadonly": true
				},
				"RegistreringerLinjer": {
					"layerid": 3,
					"isreadonly": true
				},
				"RegistreringerFlater": {
					"layerid": 4,
					"isreadonly": true
				},
				"Tømmerkjøp": {
					"layerid": 5,
					"isreadonly": true
				},
				"Tømmerdrift": {
					"layerid": 6,
					"isreadonly": true
				},
				"Planting": {
					"layerid": 7,
					"isreadonly": true
				},
				"Forhåndsrydding": {
					"layerid": 8,
					"isreadonly": true
				},
				"Ungskogpleie": {
					"layerid": 9,
					"isreadonly": true
				},
				"Oppdrag": {
					"layerid": 10,
					"isreadonly": true
				},
				"Stikkprøver": {
					"layerid": 11,
					"isreadonly": true
				},
				"SporloggLB": {
					"layerid": 12,
					"isreadonly": true
				},
				"Brukere": {
					"layerid": 14,
					"isreadonly": true
				},
				"Rapporter": {
					"layerid": 15,
					"isreadonly": true
				},
				"Sortiment": {
					"layerid": 16,
					"isreadonly": true
				},
				"ForeslåtteTiltak": {
					"layerid": 17,
					"isreadonly": true
				},
				"Hensyn": {
					"layerid": 18,
					"isreadonly": true
				},
				"Lass": {
					"layerid": 19,
					"isreadonly": true
				},
				"StatusLB": {
					"layerid": 20,
					"isreadonly": true
				}
			}
		},
		"støttedata": {
			"url": "http://kartdata2.sbskog.no/arcgis/rest/services/sbskog/sblogg3_4_stotte/FeatureServer",
			"layers": {
				"Plandata_endring": {
					"layerid": 0,
					"isreadonly": true
				},
				"Plandata": {
					"layerid": 1,
					"isreadonly": true
				},
				"Skogeier": {
					"layerid": 2,
					"isreadonly": true
				},
				"Slf": {
					"layerid": 3,
					"isreadonly": true
				}
			}
		},
		"testdata": {
			"url": "http://kartdatatest.sbskog.no/arcgis/rest/services/sbskog/sblogg3_4_stotte/FeatureServer",
			"layers": {
				"Prd": {
					"layerid": 4,
					"isreadonly": true,
					"disablecronsync": true
				}
			}
		},
		"eidsivaavvik": {
			"url": "http://kartdata2.sbskog.no/arcgis/rest/services/sbskog/EidsivaAvvik/FeatureServer",
			"layers": {
				"Avvik2014Sone33": {
					"layerid": 0,
					"isreadonly": true,
					"disablecronsync": true
				},
				"AvvikSkog_LSP": {
					"layerid": 1,
					"isreadonly": true,
					"disablecronsync": true
				},
				"Avvikskog2015HSPnett": {
					"layerid": 2,
					"isreadonly": true,
					"disablecronsync": true
				}
			}			
		},
		"skogkultur": {
			"url": "http://kartdata2.sbskog.no/arcgis/rest/services/sbskog/Skogkultur/FeatureServer",
			"layers": {
				"SKPlantekontroll": {
					"layerid": 0,
					"isreadonly": true,
					"disablecronsync": true
				},
				"SKPlanting": {
					"layerid": 1,
					"isreadonly": true,
					"disablecronsync": true
				},
				"SKAvstandsregulering": {
					"layerid": 2,
					"isreadonly": true,
					"disablecronsync": true
				},
				"SKAndreTiltak": {
					"layerid": 3,
					"isreadonly": true,
					"disablecronsync": true
				},
				"SKPlantingPkt": {
					"layerid": 4,
					"isreadonly": true,
					"disablecronsync": true
				},
				"SKAvstandsreguleringPkt": {
					"layerid": 5,
					"isreadonly": true,
					"disablecronsync": true
				},
				"SKAndreTiltakPkt": {
					"layerid": 6,
					"isreadonly": true,
					"disablecronsync": true
				}
			}			
		},
		"eidsivadata": {
			"url": "http://kartdata2.sbskog.no/arcgis/rest/services/sbskog/EidsivaData/FeatureServer",
			"layers": {
				"Ledningsnett": {
					"layerid": 0,
					"isreadonly": true,
					"disablecronsync": true
				}
			}			
		},
		"ebnett": {
			"url": "http://kartdata2.sbskog.no/arcgis/rest/services/sbskog/EB_Nett/FeatureServer",
			"layers": {
				"EB_Nett_pkt": {
					"layerid": 0,
					"isreadonly": true,
					"disablecronsync": true
				},
				"EB_Nett": {
					"layerid": 1,
					"useobjectidforglobalid": true,
					"isreadonly": true,
					"disablecronsync": true
				}
			}			
		},
		"miljodata": {
			"url": "http://kartdata2.sbskog.no/arcgis/rest/services/sbskog/Miljodata/MapServer",
			"removefromcollectionname": "sbskog_prod.SBSKOG.",
			"isreadonly": true,
			"disablecronsync": true
		}
	}
}